{
  "result": "OK. If you have submitted all of the amounts, do POST /task/finish to see if you were correct."
}{
  "result": "OK. If you have submitted all of the amounts, do POST /task/finish to see if you were correct."
}{
  "result": "OK. If you have submitted all of the amounts, do POST /task/finish to see if you were correct."
}{
  "result": "OK. If you have submitted all of the amounts, do POST /task/finish to see if you were correct."
}{
  "result": "OK. If you have submitted all of the amounts, do POST /task/finish to see if you were correct."
}{
  "result": "OK. If you have submitted all of the amounts, do POST /task/finish to see if you were correct."
}{
  "result": "OK. If you have submitted all of the amounts, do POST /task/finish to see if you were correct."
}{
  "result": "OK. If you have submitted all of the amounts, do POST /task/finish to see if you were correct."
}{
  "result": "OK. If you have submitted all of the amounts, do POST /task/finish to see if you were correct."
}{
  "result": "OK. If you have submitted all of the amounts, do POST /task/finish to see if you were correct."
}{
  "result": "OK. If you have submitted all of the amounts, do POST /task/finish to see if you were correct."
}{
  "result": "OK. If you have submitted all of the amounts, do POST /task/finish to see if you were correct."
}{
  "result": "OK. If you have submitted all of the amounts, do POST /task/finish to see if you were correct."
}{
  "result": "OK. If you have submitted all of the amounts, do POST /task/finish to see if you were correct."
}{
  "result": "OK. If you have submitted all of the amounts, do POST /task/finish to see if you were correct."
}{
  "result": "OK. If you have submitted all of the amounts, do POST /task/finish to see if you were correct."
}{
  "result": "OK. If you have submitted all of the amounts, do POST /task/finish to see if you were correct."
}{
  "result": "OK. If you have submitted all of the amounts, do POST /task/finish to see if you were correct."
}{
  "result": "OK. If you have submitted all of the amounts, do POST /task/finish to see if you were correct."
}{
  "result": "OK. If you have submitted all of the amounts, do POST /task/finish to see if you were correct."
}{
  "result": "OK. If you have submitted all of the amounts, do POST /task/finish to see if you were correct."
}{
  "result": "OK. If you have submitted all of the amounts, do POST /task/finish to see if you were correct."
}{
  "result": "OK. If you have submitted all of the amounts, do POST /task/finish to see if you were correct."
}{
  "result": "OK. If you have submitted all of the amounts, do POST /task/finish to see if you were correct."
}{
  "result": "OK. If you have submitted all of the amounts, do POST /task/finish to see if you were correct."
}{
  "result": "OK. If you have submitted all of the amounts, do POST /task/finish to see if you were correct."
}{
  "result": "OK. If you have submitted all of the amounts, do POST /task/finish to see if you were correct."
}{
  "result": "OK. If you have submitted all of the amounts, do POST /task/finish to see if you were correct."
}{
  "result": "OK. If you have submitted all of the amounts, do POST /task/finish to see if you were correct."
}{
  "result": "OK. If you have submitted all of the amounts, do POST /task/finish to see if you were correct."
}{
  "result": "OK. If you have submitted all of the amounts, do POST /task/finish to see if you were correct."
}{
  "result": "OK. If you have submitted all of the amounts, do POST /task/finish to see if you were correct."
}{
  "result": "OK. If you have submitted all of the amounts, do POST /task/finish to see if you were correct."
}{
  "result": "OK. If you have submitted all of the amounts, do POST /task/finish to see if you were correct."
}{
  "result": "OK. If you have submitted all of the amounts, do POST /task/finish to see if you were correct."
}{
  "result": "OK. If you have submitted all of the amounts, do POST /task/finish to see if you were correct."
}{
  "result": "OK. If you have submitted all of the amounts, do POST /task/finish to see if you were correct."
}{
  "result": "OK. If you have submitted all of the amounts, do POST /task/finish to see if you were correct."
}{
  "result": "OK. If you have submitted all of the amounts, do POST /task/finish to see if you were correct."
}{
  "result": "OK. If you have submitted all of the amounts, do POST /task/finish to see if you were correct."
}{
  "result": "OK. If you have submitted all of the amounts, do POST /task/finish to see if you were correct."
}{
  "result": "OK. If you have submitted all of the amounts, do POST /task/finish to see if you were correct."
}{
  "result": "OK. If you have submitted all of the amounts, do POST /task/finish to see if you were correct."
}{
  "result": "OK. If you have submitted all of the amounts, do POST /task/finish to see if you were correct."
}{
  "result": "OK. If you have submitted all of the amounts, do POST /task/finish to see if you were correct."
}{
  "result": "OK. If you have submitted all of the amounts, do POST /task/finish to see if you were correct."
}{
  "result": "OK. If you have submitted all of the amounts, do POST /task/finish to see if you were correct."
}{
  "result": "OK. If you have submitted all of the amounts, do POST /task/finish to see if you were correct."
}{
  "result": "OK. If you have submitted all of the amounts, do POST /task/finish to see if you were correct."
}{
  "result": "OK. If you have submitted all of the amounts, do POST /task/finish to see if you were correct."
}{
  "result": "OK. If you have submitted all of the amounts, do POST /task/finish to see if you were correct."
}{
  "result": "OK. If you have submitted all of the amounts, do POST /task/finish to see if you were correct."
}{
  "result": "OK. If you have submitted all of the amounts, do POST /task/finish to see if you were correct."
}{
  "result": "OK. If you have submitted all of the amounts, do POST /task/finish to see if you were correct."
}{
  "result": "OK. If you have submitted all of the amounts, do POST /task/finish to see if you were correct."
}{
  "result": "OK. If you have submitted all of the amounts, do POST /task/finish to see if you were correct."
}{
  "result": "OK. If you have submitted all of the amounts, do POST /task/finish to see if you were correct."
}{
  "result": "OK. If you have submitted all of the amounts, do POST /task/finish to see if you were correct."
}{
  "result": "OK. If you have submitted all of the amounts, do POST /task/finish to see if you were correct."
}{
  "result": "OK. If you have submitted all of the amounts, do POST /task/finish to see if you were correct."
}{
  "result": "OK. If you have submitted all of the amounts, do POST /task/finish to see if you were correct."
}{
  "result": "OK. If you have submitted all of the amounts, do POST /task/finish to see if you were correct."
}{
  "result": "OK. If you have submitted all of the amounts, do POST /task/finish to see if you were correct."
}{
  "result": "OK. If you have submitted all of the amounts, do POST /task/finish to see if you were correct."
}{
  "result": "OK. If you have submitted all of the amounts, do POST /task/finish to see if you were correct."
}{
  "result": "OK. If you have submitted all of the amounts, do POST /task/finish to see if you were correct."
}{
  "result": "OK. If you have submitted all of the amounts, do POST /task/finish to see if you were correct."
}{
  "result": "OK. If you have submitted all of the amounts, do POST /task/finish to see if you were correct."
}{
  "result": "OK. If you have submitted all of the amounts, do POST /task/finish to see if you were correct."
}{
  "result": "OK. If you have submitted all of the amounts, do POST /task/finish to see if you were correct."
}{
  "result": "OK. If you have submitted all of the amounts, do POST /task/finish to see if you were correct."
}{
  "result": "OK. If you have submitted all of the amounts, do POST /task/finish to see if you were correct."
}{
  "result": "OK. If you have submitted all of the amounts, do POST /task/finish to see if you were correct."
}{
  "result": "OK. If you have submitted all of the amounts, do POST /task/finish to see if you were correct."
}{
  "result": "OK. If you have submitted all of the amounts, do POST /task/finish to see if you were correct."
}{
  "result": "OK. If you have submitted all of the amounts, do POST /task/finish to see if you were correct."
}{
  "result": "OK. If you have submitted all of the amounts, do POST /task/finish to see if you were correct."
}{
  "result": "OK. If you have submitted all of the amounts, do POST /task/finish to see if you were correct."
}{
  "result": "OK. If you have submitted all of the amounts, do POST /task/finish to see if you were correct."
}{
  "result": "OK. If you have submitted all of the amounts, do POST /task/finish to see if you were correct."
}{
  "result": "OK. If you have submitted all of the amounts, do POST /task/finish to see if you were correct."
}{
  "result": "OK. If you have submitted all of the amounts, do POST /task/finish to see if you were correct."
}{
  "result": "OK. If you have submitted all of the amounts, do POST /task/finish to see if you were correct."
}{
  "result": "OK. If you have submitted all of the amounts, do POST /task/finish to see if you were correct."
}{
  "result": "OK. If you have submitted all of the amounts, do POST /task/finish to see if you were correct."
}{
  "result": "OK. If you have submitted all of the amounts, do POST /task/finish to see if you were correct."
}{
  "result": "OK. If you have submitted all of the amounts, do POST /task/finish to see if you were correct."
}{
  "result": "OK. If you have submitted all of the amounts, do POST /task/finish to see if you were correct."
}{
  "result": "OK. If you have submitted all of the amounts, do POST /task/finish to see if you were correct."
}{
  "result": "OK. If you have submitted all of the amounts, do POST /task/finish to see if you were correct."
}{
  "result": "OK. If you have submitted all of the amounts, do POST /task/finish to see if you were correct."
}{
  "result": "OK. If you have submitted all of the amounts, do POST /task/finish to see if you were correct."
}{
  "result": "OK. If you have submitted all of the amounts, do POST /task/finish to see if you were correct."
}{
  "result": "OK. If you have submitted all of the amounts, do POST /task/finish to see if you were correct."
}{
  "result": "OK. If you have submitted all of the amounts, do POST /task/finish to see if you were correct."
}{
  "result": "OK. If you have submitted all of the amounts, do POST /task/finish to see if you were correct."
}{
  "result": "OK. If you have submitted all of the amounts, do POST /task/finish to see if you were correct."
}{
  "result": "OK. If you have submitted all of the amounts, do POST /task/finish to see if you were correct."
}{
  "result": "OK. If you have submitted all of the amounts, do POST /task/finish to see if you were correct."
}{
  "result": "OK. If you have submitted all of the amounts, do POST /task/finish to see if you were correct."
}{
  "result": "OK. If you have submitted all of the amounts, do POST /task/finish to see if you were correct."
}{
  "result": "OK. If you have submitted all of the amounts, do POST /task/finish to see if you were correct."
}{
  "result": "OK. If you have submitted all of the amounts, do POST /task/finish to see if you were correct."
}{
  "result": "OK. If you have submitted all of the amounts, do POST /task/finish to see if you were correct."
}{
  "result": "OK. If you have submitted all of the amounts, do POST /task/finish to see if you were correct."
}{
  "result": "OK. If you have submitted all of the amounts, do POST /task/finish to see if you were correct."
}{
  "result": "OK. If you have submitted all of the amounts, do POST /task/finish to see if you were correct."
}{
  "result": "OK. If you have submitted all of the amounts, do POST /task/finish to see if you were correct."
}{
  "result": "OK. If you have submitted all of the amounts, do POST /task/finish to see if you were correct."
}{
  "result": "OK. If you have submitted all of the amounts, do POST /task/finish to see if you were correct."
}{
  "result": "OK. If you have submitted all of the amounts, do POST /task/finish to see if you were correct."
}{
  "result": "OK. If you have submitted all of the amounts, do POST /task/finish to see if you were correct."
}{
  "result": "OK. If you have submitted all of the amounts, do POST /task/finish to see if you were correct."
}{
  "result": "OK. If you have submitted all of the amounts, do POST /task/finish to see if you were correct."
}{
  "result": "OK. If you have submitted all of the amounts, do POST /task/finish to see if you were correct."
}{
  "result": "OK. If you have submitted all of the amounts, do POST /task/finish to see if you were correct."
}{
  "result": "OK. If you have submitted all of the amounts, do POST /task/finish to see if you were correct."
}{
  "result": "OK. If you have submitted all of the amounts, do POST /task/finish to see if you were correct."
}{
  "result": "OK. If you have submitted all of the amounts, do POST /task/finish to see if you were correct."
}{
  "result": "OK. If you have submitted all of the amounts, do POST /task/finish to see if you were correct."
}{
  "result": "OK. If you have submitted all of the amounts, do POST /task/finish to see if you were correct."
}{
  "result": "OK. If you have submitted all of the amounts, do POST /task/finish to see if you were correct."
}{
  "result": "OK. If you have submitted all of the amounts, do POST /task/finish to see if you were correct."
}{
  "result": "OK. If you have submitted all of the amounts, do POST /task/finish to see if you were correct."
}{
  "result": "OK. If you have submitted all of the amounts, do POST /task/finish to see if you were correct."
}{
  "result": "OK. If you have submitted all of the amounts, do POST /task/finish to see if you were correct."
}{
  "result": "OK. If you have submitted all of the amounts, do POST /task/finish to see if you were correct."
}{
  "result": "OK. If you have submitted all of the amounts, do POST /task/finish to see if you were correct."
}{
  "result": "OK. If you have submitted all of the amounts, do POST /task/finish to see if you were correct."
}{
  "result": "OK. If you have submitted all of the amounts, do POST /task/finish to see if you were correct."
}{
  "result": "OK. If you have submitted all of the amounts, do POST /task/finish to see if you were correct."
}{
  "result": "OK. If you have submitted all of the amounts, do POST /task/finish to see if you were correct."
}{
  "result": "OK. If you have submitted all of the amounts, do POST /task/finish to see if you were correct."
}{
  "result": "OK. If you have submitted all of the amounts, do POST /task/finish to see if you were correct."
}{
  "result": "OK. If you have submitted all of the amounts, do POST /task/finish to see if you were correct."
}{
  "result": "OK. If you have submitted all of the amounts, do POST /task/finish to see if you were correct."
}{
  "result": "OK. If you have submitted all of the amounts, do POST /task/finish to see if you were correct."
}{
  "result": "OK. If you have submitted all of the amounts, do POST /task/finish to see if you were correct."
}{
  "result": "OK. If you have submitted all of the amounts, do POST /task/finish to see if you were correct."
}{
  "result": "OK. If you have submitted all of the amounts, do POST /task/finish to see if you were correct."
}{
  "result": "OK. If you have submitted all of the amounts, do POST /task/finish to see if you were correct."
}{
  "result": "OK. If you have submitted all of the amounts, do POST /task/finish to see if you were correct."
}{
  "result": "OK. If you have submitted all of the amounts, do POST /task/finish to see if you were correct."
}{
  "result": "OK. If you have submitted all of the amounts, do POST /task/finish to see if you were correct."
}{
  "result": "OK. If you have submitted all of the amounts, do POST /task/finish to see if you were correct."
}{
  "result": "OK. If you have submitted all of the amounts, do POST /task/finish to see if you were correct."
}{
  "result": "OK. If you have submitted all of the amounts, do POST /task/finish to see if you were correct."
}{
  "result": "OK. If you have submitted all of the amounts, do POST /task/finish to see if you were correct."
}{
  "result": "OK. If you have submitted all of the amounts, do POST /task/finish to see if you were correct."
}{
  "result": "OK. If you have submitted all of the amounts, do POST /task/finish to see if you were correct."
}{
  "result": "OK. If you have submitted all of the amounts, do POST /task/finish to see if you were correct."
}{
  "result": "OK. If you have submitted all of the amounts, do POST /task/finish to see if you were correct."
}{
  "result": "OK. If you have submitted all of the amounts, do POST /task/finish to see if you were correct."
}{
  "result": "OK. If you have submitted all of the amounts, do POST /task/finish to see if you were correct."
}{
  "result": "OK. If you have submitted all of the amounts, do POST /task/finish to see if you were correct."
}{
  "result": "OK. If you have submitted all of the amounts, do POST /task/finish to see if you were correct."
}{
  "result": "OK. If you have submitted all of the amounts, do POST /task/finish to see if you were correct."
}{
  "result": "OK. If you have submitted all of the amounts, do POST /task/finish to see if you were correct."
}{
  "result": "OK. If you have submitted all of the amounts, do POST /task/finish to see if you were correct."
}{
  "result": "OK. If you have submitted all of the amounts, do POST /task/finish to see if you were correct."
}{
  "result": "OK. If you have submitted all of the amounts, do POST /task/finish to see if you were correct."
}{
  "result": "OK. If you have submitted all of the amounts, do POST /task/finish to see if you were correct."
}{
  "result": "OK. If you have submitted all of the amounts, do POST /task/finish to see if you were correct."
}{
  "result": "OK. If you have submitted all of the amounts, do POST /task/finish to see if you were correct."
}{
  "result": "OK. If you have submitted all of the amounts, do POST /task/finish to see if you were correct."
}{
  "result": "OK. If you have submitted all of the amounts, do POST /task/finish to see if you were correct."
}{
  "result": "OK. If you have submitted all of the amounts, do POST /task/finish to see if you were correct."
}{
  "result": "OK. If you have submitted all of the amounts, do POST /task/finish to see if you were correct."
}{
  "result": "OK. If you have submitted all of the amounts, do POST /task/finish to see if you were correct."
}{
  "result": "OK. If you have submitted all of the amounts, do POST /task/finish to see if you were correct."
}{
  "result": "OK. If you have submitted all of the amounts, do POST /task/finish to see if you were correct."
}{
  "result": "OK. If you have submitted all of the amounts, do POST /task/finish to see if you were correct."
}{
  "result": "OK. If you have submitted all of the amounts, do POST /task/finish to see if you were correct."
}{
  "result": "OK. If you have submitted all of the amounts, do POST /task/finish to see if you were correct."
}{
  "result": "OK. If you have submitted all of the amounts, do POST /task/finish to see if you were correct."
}{
  "result": "OK. If you have submitted all of the amounts, do POST /task/finish to see if you were correct."
}{
  "result": "OK. If you have submitted all of the amounts, do POST /task/finish to see if you were correct."
}{
  "result": "OK. If you have submitted all of the amounts, do POST /task/finish to see if you were correct."
}{
  "result": "OK. If you have submitted all of the amounts, do POST /task/finish to see if you were correct."
}{
  "result": "OK. If you have submitted all of the amounts, do POST /task/finish to see if you were correct."
}{
  "result": "OK. If you have submitted all of the amounts, do POST /task/finish to see if you were correct."
}{
  "result": "OK. If you have submitted all of the amounts, do POST /task/finish to see if you were correct."
}{
  "result": "OK. If you have submitted all of the amounts, do POST /task/finish to see if you were correct."
}{
  "result": "OK. If you have submitted all of the amounts, do POST /task/finish to see if you were correct."
}{
  "result": "OK. If you have submitted all of the amounts, do POST /task/finish to see if you were correct."
}{
  "result": "OK. If you have submitted all of the amounts, do POST /task/finish to see if you were correct."
}{
  "result": "OK. If you have submitted all of the amounts, do POST /task/finish to see if you were correct."
}{
  "result": "OK. If you have submitted all of the amounts, do POST /task/finish to see if you were correct."
}{
  "result": "OK. If you have submitted all of the amounts, do POST /task/finish to see if you were correct."
}{
  "result": "OK. If you have submitted all of the amounts, do POST /task/finish to see if you were correct."
}{
  "result": "OK. If you have submitted all of the amounts, do POST /task/finish to see if you were correct."
}{
  "result": "OK. If you have submitted all of the amounts, do POST /task/finish to see if you were correct."
}{
  "result": "OK. If you have submitted all of the amounts, do POST /task/finish to see if you were correct."
}{
  "result": "OK. If you have submitted all of the amounts, do POST /task/finish to see if you were correct."
}{
  "result": "OK. If you have submitted all of the amounts, do POST /task/finish to see if you were correct."
}{
  "result": "OK. If you have submitted all of the amounts, do POST /task/finish to see if you were correct."
}{
  "result": "OK. If you have submitted all of the amounts, do POST /task/finish to see if you were correct."
}{
  "result": "OK. If you have submitted all of the amounts, do POST /task/finish to see if you were correct."
}{
  "result": "OK. If you have submitted all of the amounts, do POST /task/finish to see if you were correct."
}{
  "result": "OK. If you have submitted all of the amounts, do POST /task/finish to see if you were correct."
}{
  "result": "OK. If you have submitted all of the amounts, do POST /task/finish to see if you were correct."
}{
  "result": "OK. If you have submitted all of the amounts, do POST /task/finish to see if you were correct."
}{
  "result": "OK. If you have submitted all of the amounts, do POST /task/finish to see if you were correct."
}{
  "result": "OK. If you have submitted all of the amounts, do POST /task/finish to see if you were correct."
}{
  "result": "OK. If you have submitted all of the amounts, do POST /task/finish to see if you were correct."
}{
  "result": "OK. If you have submitted all of the amounts, do POST /task/finish to see if you were correct."
}{
  "result": "OK. If you have submitted all of the amounts, do POST /task/finish to see if you were correct."
}{
  "result": "OK. If you have submitted all of the amounts, do POST /task/finish to see if you were correct."
}{
  "result": "OK. If you have submitted all of the amounts, do POST /task/finish to see if you were correct."
}{
  "result": "OK. If you have submitted all of the amounts, do POST /task/finish to see if you were correct."
}{
  "result": "OK. If you have submitted all of the amounts, do POST /task/finish to see if you were correct."
}{
  "result": "OK. If you have submitted all of the amounts, do POST /task/finish to see if you were correct."
}{
  "result": "OK. If you have submitted all of the amounts, do POST /task/finish to see if you were correct."
}{
  "result": "OK. If you have submitted all of the amounts, do POST /task/finish to see if you were correct."
}{
  "result": "OK. If you have submitted all of the amounts, do POST /task/finish to see if you were correct."
}{
  "result": "OK. If you have submitted all of the amounts, do POST /task/finish to see if you were correct."
}{
  "result": "OK. If you have submitted all of the amounts, do POST /task/finish to see if you were correct."
}{
  "result": "OK. If you have submitted all of the amounts, do POST /task/finish to see if you were correct."
}{
  "result": "OK. If you have submitted all of the amounts, do POST /task/finish to see if you were correct."
}{
  "result": "OK. If you have submitted all of the amounts, do POST /task/finish to see if you were correct."
}{
  "result": "OK. If you have submitted all of the amounts, do POST /task/finish to see if you were correct."
}{
  "result": "OK. If you have submitted all of the amounts, do POST /task/finish to see if you were correct."
}{
  "result": "OK. If you have submitted all of the amounts, do POST /task/finish to see if you were correct."
}{
  "result": "OK. If you have submitted all of the amounts, do POST /task/finish to see if you were correct."
}{
  "result": "OK. If you have submitted all of the amounts, do POST /task/finish to see if you were correct."
}{
  "result": "OK. If you have submitted all of the amounts, do POST /task/finish to see if you were correct."
}{
  "result": "OK. If you have submitted all of the amounts, do POST /task/finish to see if you were correct."
}{
  "result": "OK. If you have submitted all of the amounts, do POST /task/finish to see if you were correct."
}{
  "result": "OK. If you have submitted all of the amounts, do POST /task/finish to see if you were correct."
}{
  "result": "OK. If you have submitted all of the amounts, do POST /task/finish to see if you were correct."
}{
  "result": "OK. If you have submitted all of the amounts, do POST /task/finish to see if you were correct."
}{
  "result": "OK. If you have submitted all of the amounts, do POST /task/finish to see if you were correct."
}{
  "result": "OK. If you have submitted all of the amounts, do POST /task/finish to see if you were correct."
}{
  "result": "OK. If you have submitted all of the amounts, do POST /task/finish to see if you were correct."
}{
  "result": "OK. If you have submitted all of the amounts, do POST /task/finish to see if you were correct."
}{
  "result": "OK. If you have submitted all of the amounts, do POST /task/finish to see if you were correct."
}{
  "result": "OK. If you have submitted all of the amounts, do POST /task/finish to see if you were correct."
}{
  "result": "OK. If you have submitted all of the amounts, do POST /task/finish to see if you were correct."
}{
  "result": "OK. If you have submitted all of the amounts, do POST /task/finish to see if you were correct."
}{
  "result": "OK. If you have submitted all of the amounts, do POST /task/finish to see if you were correct."
}{
  "result": "OK. If you have submitted all of the amounts, do POST /task/finish to see if you were correct."
}{
  "result": "OK. If you have submitted all of the amounts, do POST /task/finish to see if you were correct."
}{
  "result": "OK. If you have submitted all of the amounts, do POST /task/finish to see if you were correct."
}{
  "result": "OK. If you have submitted all of the amounts, do POST /task/finish to see if you were correct."
}{
  "result": "OK. If you have submitted all of the amounts, do POST /task/finish to see if you were correct."
}{
  "result": "OK. If you have submitted all of the amounts, do POST /task/finish to see if you were correct."
}{
  "result": "OK. If you have submitted all of the amounts, do POST /task/finish to see if you were correct."
}{
  "result": "OK. If you have submitted all of the amounts, do POST /task/finish to see if you were correct."
}{
  "result": "OK. If you have submitted all of the amounts, do POST /task/finish to see if you were correct."
}{
  "result": "OK. If you have submitted all of the amounts, do POST /task/finish to see if you were correct."
}{
  "result": "OK. If you have submitted all of the amounts, do POST /task/finish to see if you were correct."
}{
  "result": "OK. If you have submitted all of the amounts, do POST /task/finish to see if you were correct."
}{
  "result": "OK. If you have submitted all of the amounts, do POST /task/finish to see if you were correct."
}{
  "result": "OK. If you have submitted all of the amounts, do POST /task/finish to see if you were correct."
}{
  "result": "OK. If you have submitted all of the amounts, do POST /task/finish to see if you were correct."
}{
  "result": "OK. If you have submitted all of the amounts, do POST /task/finish to see if you were correct."
}{
  "result": "OK. If you have submitted all of the amounts, do POST /task/finish to see if you were correct."
}{
  "result": "OK. If you have submitted all of the amounts, do POST /task/finish to see if you were correct."
}{
  "result": "OK. If you have submitted all of the amounts, do POST /task/finish to see if you were correct."
}{
  "result": "OK. If you have submitted all of the amounts, do POST /task/finish to see if you were correct."
}{
  "result": "OK. If you have submitted all of the amounts, do POST /task/finish to see if you were correct."
}{
  "result": "OK. If you have submitted all of the amounts, do POST /task/finish to see if you were correct."
}{
  "result": "OK. If you have submitted all of the amounts, do POST /task/finish to see if you were correct."
}{
  "result": "OK. If you have submitted all of the amounts, do POST /task/finish to see if you were correct."
}{
  "result": "OK. If you have submitted all of the amounts, do POST /task/finish to see if you were correct."
}{
  "result": "OK. If you have submitted all of the amounts, do POST /task/finish to see if you were correct."
}{
  "result": "OK. If you have submitted all of the amounts, do POST /task/finish to see if you were correct."
}{
  "result": "OK. If you have submitted all of the amounts, do POST /task/finish to see if you were correct."
}{
  "result": "OK. If you have submitted all of the amounts, do POST /task/finish to see if you were correct."
}{
  "result": "OK. If you have submitted all of the amounts, do POST /task/finish to see if you were correct."
}{
  "result": "OK. If you have submitted all of the amounts, do POST /task/finish to see if you were correct."
}{
  "result": "OK. If you have submitted all of the amounts, do POST /task/finish to see if you were correct."
}{
  "result": "OK. If you have submitted all of the amounts, do POST /task/finish to see if you were correct."
}{
  "result": "OK. If you have submitted all of the amounts, do POST /task/finish to see if you were correct."
}{
  "result": "OK. If you have submitted all of the amounts, do POST /task/finish to see if you were correct."
}{
  "result": "OK. If you have submitted all of the amounts, do POST /task/finish to see if you were correct."
}{
  "result": "OK. If you have submitted all of the amounts, do POST /task/finish to see if you were correct."
}{
  "result": "OK. If you have submitted all of the amounts, do POST /task/finish to see if you were correct."
}{
  "result": "OK. If you have submitted all of the amounts, do POST /task/finish to see if you were correct."
}{
  "result": "OK. If you have submitted all of the amounts, do POST /task/finish to see if you were correct."
}{
  "result": "OK. If you have submitted all of the amounts, do POST /task/finish to see if you were correct."
}{
  "result": "OK. If you have submitted all of the amounts, do POST /task/finish to see if you were correct."
}{
  "result": "OK. If you have submitted all of the amounts, do POST /task/finish to see if you were correct."
}{
  "result": "OK. If you have submitted all of the amounts, do POST /task/finish to see if you were correct."
}{
  "result": "OK. If you have submitted all of the amounts, do POST /task/finish to see if you were correct."
}{
  "result": "OK. If you have submitted all of the amounts, do POST /task/finish to see if you were correct."
}{
  "result": "OK. If you have submitted all of the amounts, do POST /task/finish to see if you were correct."
}{
  "result": "OK. If you have submitted all of the amounts, do POST /task/finish to see if you were correct."
}{
  "result": "OK. If you have submitted all of the amounts, do POST /task/finish to see if you were correct."
}{
  "result": "OK. If you have submitted all of the amounts, do POST /task/finish to see if you were correct."
}{
  "result": "OK. If you have submitted all of the amounts, do POST /task/finish to see if you were correct."
}{
  "result": "OK. If you have submitted all of the amounts, do POST /task/finish to see if you were correct."
}{
  "result": "OK. If you have submitted all of the amounts, do POST /task/finish to see if you were correct."
}{
  "result": "OK. If you have submitted all of the amounts, do POST /task/finish to see if you were correct."
}{
  "result": "OK. If you have submitted all of the amounts, do POST /task/finish to see if you were correct."
}{
  "result": "OK. If you have submitted all of the amounts, do POST /task/finish to see if you were correct."
}{
  "result": "OK. If you have submitted all of the amounts, do POST /task/finish to see if you were correct."
}{
  "result": "OK. If you have submitted all of the amounts, do POST /task/finish to see if you were correct."
}{
  "result": "OK. If you have submitted all of the amounts, do POST /task/finish to see if you were correct."
}{
  "result": "OK. If you have submitted all of the amounts, do POST /task/finish to see if you were correct."
}{
  "result": "OK. If you have submitted all of the amounts, do POST /task/finish to see if you were correct."
}{
  "result": "OK. If you have submitted all of the amounts, do POST /task/finish to see if you were correct."
}{
  "result": "OK. If you have submitted all of the amounts, do POST /task/finish to see if you were correct."
}{
  "result": "OK. If you have submitted all of the amounts, do POST /task/finish to see if you were correct."
}{
  "result": "OK. If you have submitted all of the amounts, do POST /task/finish to see if you were correct."
}{
  "result": "OK. If you have submitted all of the amounts, do POST /task/finish to see if you were correct."
}{
  "result": "OK. If you have submitted all of the amounts, do POST /task/finish to see if you were correct."
}{
  "result": "OK. If you have submitted all of the amounts, do POST /task/finish to see if you were correct."
}{
  "result": "OK. If you have submitted all of the amounts, do POST /task/finish to see if you were correct."
}{
  "result": "OK. If you have submitted all of the amounts, do POST /task/finish to see if you were correct."
}{
  "result": "OK. If you have submitted all of the amounts, do POST /task/finish to see if you were correct."
}{
  "result": "OK. If you have submitted all of the amounts, do POST /task/finish to see if you were correct."
}{
  "result": "OK. If you have submitted all of the amounts, do POST /task/finish to see if you were correct."
}{
  "result": "OK. If you have submitted all of the amounts, do POST /task/finish to see if you were correct."
}{
  "result": "OK. If you have submitted all of the amounts, do POST /task/finish to see if you were correct."
}{
  "result": "OK. If you have submitted all of the amounts, do POST /task/finish to see if you were correct."
}{
  "result": "OK. If you have submitted all of the amounts, do POST /task/finish to see if you were correct."
}{
  "result": "OK. If you have submitted all of the amounts, do POST /task/finish to see if you were correct."
}{
  "result": "OK. If you have submitted all of the amounts, do POST /task/finish to see if you were correct."
}{
  "result": "OK. If you have submitted all of the amounts, do POST /task/finish to see if you were correct."
}{
  "result": "OK. If you have submitted all of the amounts, do POST /task/finish to see if you were correct."
}{
  "result": "OK. If you have submitted all of the amounts, do POST /task/finish to see if you were correct."
}{
  "result": "OK. If you have submitted all of the amounts, do POST /task/finish to see if you were correct."
}{
  "result": "OK. If you have submitted all of the amounts, do POST /task/finish to see if you were correct."
}{
  "result": "OK. If you have submitted all of the amounts, do POST /task/finish to see if you were correct."
}{
  "result": "OK. If you have submitted all of the amounts, do POST /task/finish to see if you were correct."
}{
  "result": "OK. If you have submitted all of the amounts, do POST /task/finish to see if you were correct."
}{
  "result": "OK. If you have submitted all of the amounts, do POST /task/finish to see if you were correct."
}{
  "result": "OK. If you have submitted all of the amounts, do POST /task/finish to see if you were correct."
}{
  "result": "OK. If you have submitted all of the amounts, do POST /task/finish to see if you were correct."
}{
  "result": "OK. If you have submitted all of the amounts, do POST /task/finish to see if you were correct."
}{
  "result": "OK. If you have submitted all of the amounts, do POST /task/finish to see if you were correct."
}{
  "result": "OK. If you have submitted all of the amounts, do POST /task/finish to see if you were correct."
}{
  "result": "OK. If you have submitted all of the amounts, do POST /task/finish to see if you were correct."
}{
  "result": "OK. If you have submitted all of the amounts, do POST /task/finish to see if you were correct."
}{
  "result": "OK. If you have submitted all of the amounts, do POST /task/finish to see if you were correct."
}{
  "result": "OK. If you have submitted all of the amounts, do POST /task/finish to see if you were correct."
}{
  "result": "OK. If you have submitted all of the amounts, do POST /task/finish to see if you were correct."
}{
  "result": "OK. If you have submitted all of the amounts, do POST /task/finish to see if you were correct."
}{
  "result": "OK. If you have submitted all of the amounts, do POST /task/finish to see if you were correct."
}{
  "result": "OK. If you have submitted all of the amounts, do POST /task/finish to see if you were correct."
}{
  "result": "OK. If you have submitted all of the amounts, do POST /task/finish to see if you were correct."
}{
  "result": "OK. If you have submitted all of the amounts, do POST /task/finish to see if you were correct."
}{
  "result": "OK. If you have submitted all of the amounts, do POST /task/finish to see if you were correct."
}{
  "result": "OK. If you have submitted all of the amounts, do POST /task/finish to see if you were correct."
}{
  "result": "OK. If you have submitted all of the amounts, do POST /task/finish to see if you were correct."
}{
  "result": "OK. If you have submitted all of the amounts, do POST /task/finish to see if you were correct."
}{
  "result": "OK. If you have submitted all of the amounts, do POST /task/finish to see if you were correct."
}{
  "result": "OK. If you have submitted all of the amounts, do POST /task/finish to see if you were correct."
}{
  "result": "OK. If you have submitted all of the amounts, do POST /task/finish to see if you were correct."
}{
  "result": "OK. If you have submitted all of the amounts, do POST /task/finish to see if you were correct."
}{
  "result": "OK. If you have submitted all of the amounts, do POST /task/finish to see if you were correct."
}{
  "result": "OK. If you have submitted all of the amounts, do POST /task/finish to see if you were correct."
}{
  "result": "OK. If you have submitted all of the amounts, do POST /task/finish to see if you were correct."
}{
  "result": "OK. If you have submitted all of the amounts, do POST /task/finish to see if you were correct."
}{
  "result": "OK. If you have submitted all of the amounts, do POST /task/finish to see if you were correct."
}{
  "result": "OK. If you have submitted all of the amounts, do POST /task/finish to see if you were correct."
}{
  "result": "OK. If you have submitted all of the amounts, do POST /task/finish to see if you were correct."
}{
  "result": "OK. If you have submitted all of the amounts, do POST /task/finish to see if you were correct."
}{
  "result": "OK. If you have submitted all of the amounts, do POST /task/finish to see if you were correct."
}{
  "result": "OK. If you have submitted all of the amounts, do POST /task/finish to see if you were correct."
}{
  "result": "OK. If you have submitted all of the amounts, do POST /task/finish to see if you were correct."
}{
  "result": "OK. If you have submitted all of the amounts, do POST /task/finish to see if you were correct."
}{
  "result": "OK. If you have submitted all of the amounts, do POST /task/finish to see if you were correct."
}{
  "result": "OK. If you have submitted all of the amounts, do POST /task/finish to see if you were correct."
}{
  "result": "OK. If you have submitted all of the amounts, do POST /task/finish to see if you were correct."
}{
  "result": "OK. If you have submitted all of the amounts, do POST /task/finish to see if you were correct."
}{
  "result": "OK. If you have submitted all of the amounts, do POST /task/finish to see if you were correct."
}{
  "result": "OK. If you have submitted all of the amounts, do POST /task/finish to see if you were correct."
}{
  "result": "OK. If you have submitted all of the amounts, do POST /task/finish to see if you were correct."
}{
  "result": "OK. If you have submitted all of the amounts, do POST /task/finish to see if you were correct."
}{
  "result": "OK. If you have submitted all of the amounts, do POST /task/finish to see if you were correct."
}{
  "result": "OK. If you have submitted all of the amounts, do POST /task/finish to see if you were correct."
}{
  "result": "OK. If you have submitted all of the amounts, do POST /task/finish to see if you were correct."
}{
  "result": "OK. If you have submitted all of the amounts, do POST /task/finish to see if you were correct."
}{
  "result": "OK. If you have submitted all of the amounts, do POST /task/finish to see if you were correct."
}{
  "result": "OK. If you have submitted all of the amounts, do POST /task/finish to see if you were correct."
}{
  "result": "OK. If you have submitted all of the amounts, do POST /task/finish to see if you were correct."
}{
  "result": "OK. If you have submitted all of the amounts, do POST /task/finish to see if you were correct."
}{
  "result": "OK. If you have submitted all of the amounts, do POST /task/finish to see if you were correct."
}{
  "result": "OK. If you have submitted all of the amounts, do POST /task/finish to see if you were correct."
}{
  "result": "OK. If you have submitted all of the amounts, do POST /task/finish to see if you were correct."
}{
  "result": "OK. If you have submitted all of the amounts, do POST /task/finish to see if you were correct."
}{
  "result": "OK. If you have submitted all of the amounts, do POST /task/finish to see if you were correct."
}{
  "result": "OK. If you have submitted all of the amounts, do POST /task/finish to see if you were correct."
}{
  "result": "OK. If you have submitted all of the amounts, do POST /task/finish to see if you were correct."
}{
  "result": "OK. If you have submitted all of the amounts, do POST /task/finish to see if you were correct."
}{
  "result": "OK. If you have submitted all of the amounts, do POST /task/finish to see if you were correct."
}{
  "result": "OK. If you have submitted all of the amounts, do POST /task/finish to see if you were correct."
}{
  "result": "OK. If you have submitted all of the amounts, do POST /task/finish to see if you were correct."
}{
  "result": "OK. If you have submitted all of the amounts, do POST /task/finish to see if you were correct."
}{
  "result": "OK. If you have submitted all of the amounts, do POST /task/finish to see if you were correct."
}{
  "result": "OK. If you have submitted all of the amounts, do POST /task/finish to see if you were correct."
}{
  "result": "OK. If you have submitted all of the amounts, do POST /task/finish to see if you were correct."
}{
  "result": "OK. If you have submitted all of the amounts, do POST /task/finish to see if you were correct."
}{
  "result": "OK. If you have submitted all of the amounts, do POST /task/finish to see if you were correct."
}{
  "result": "OK. If you have submitted all of the amounts, do POST /task/finish to see if you were correct."
}{
  "result": "OK. If you have submitted all of the amounts, do POST /task/finish to see if you were correct."
}{
  "result": "OK. If you have submitted all of the amounts, do POST /task/finish to see if you were correct."
}{
  "result": "OK. If you have submitted all of the amounts, do POST /task/finish to see if you were correct."
}{
  "result": "OK. If you have submitted all of the amounts, do POST /task/finish to see if you were correct."
}{
  "result": "OK. If you have submitted all of the amounts, do POST /task/finish to see if you were correct."
}{
  "result": "OK. If you have submitted all of the amounts, do POST /task/finish to see if you were correct."
}{
  "result": "OK. If you have submitted all of the amounts, do POST /task/finish to see if you were correct."
}{
  "result": "OK. If you have submitted all of the amounts, do POST /task/finish to see if you were correct."
}{
  "result": "OK. If you have submitted all of the amounts, do POST /task/finish to see if you were correct."
}{
  "result": "OK. If you have submitted all of the amounts, do POST /task/finish to see if you were correct."
}{
  "result": "OK. If you have submitted all of the amounts, do POST /task/finish to see if you were correct."
}{
  "result": "OK. If you have submitted all of the amounts, do POST /task/finish to see if you were correct."
}{
  "result": "OK. If you have submitted all of the amounts, do POST /task/finish to see if you were correct."
}{
  "result": "OK. If you have submitted all of the amounts, do POST /task/finish to see if you were correct."
}{
  "result": "OK. If you have submitted all of the amounts, do POST /task/finish to see if you were correct."
}{
  "result": "OK. If you have submitted all of the amounts, do POST /task/finish to see if you were correct."
}{
  "result": "OK. If you have submitted all of the amounts, do POST /task/finish to see if you were correct."
}{
  "result": "OK. If you have submitted all of the amounts, do POST /task/finish to see if you were correct."
}{
  "result": "OK. If you have submitted all of the amounts, do POST /task/finish to see if you were correct."
}{
  "result": "OK. If you have submitted all of the amounts, do POST /task/finish to see if you were correct."
}{
  "result": "OK. If you have submitted all of the amounts, do POST /task/finish to see if you were correct."
}{
  "result": "OK. If you have submitted all of the amounts, do POST /task/finish to see if you were correct."
}{
  "result": "OK. If you have submitted all of the amounts, do POST /task/finish to see if you were correct."
}